{"time" : "2019-12-27 08:34:22", "model" : "Acurite-Tower", "id" : 14720, "channel" : "A", "battery_ok" : 1, "temperature_C" : 20.600, "humidity" : 59}
{"time" : "2019-12-27 08:34:22", "model" : "Acurite-Tower", "id" : 14720, "channel" : "A", "battery_ok" : 1, "temperature_C" : 20.600, "humidity" : 59}
{"time" : "2019-12-27 08:34:22", "model" : "Acurite-Tower", "id" : 14720, "channel" : "A", "battery_ok" : 1, "temperature_C" : 20.600, "humidity" : 59}
{"time" : "2019-12-27 08:34:38", "model" : "Acurite-Tower", "id" : 14720, "channel" : "A", "battery_ok" : 1, "temperature_C" : 20.600, "humidity" : 59}
{"time" : "2019-12-27 08:34:38", "model" : "Acurite-Tower", "id" : 14720, "channel" : "A", "battery_ok" : 1, "temperature_C" : 20.600, "humidity" : 59}
{"time" : "2019-12-27 08:34:38", "model" : "Acurite-Tower", "id" : 14720, "channel" : "A", "battery_ok" : 1, "temperature_C" : 20.600, "humidity" : 59}
